{
  "ndkDirProperty": "C:\\Users\\thpark\\AppData\\Local\\Android\\Sdk\\ndk\\21.3.6528147",
  "sdkFolder": "C:\\Users\\thpark\\AppData\\Local\\Android\\Sdk",
  "sideBySideNdkFolderNames": [
    "20.0.5594570",
    "21.0.6113669",
    "21.3.6528147",
    "23.0.7344513"
  ]
}