{
  "ndkDirProperty": "C:\\Users\\thpark\\AppData\\Local\\Android\\Sdk\\ndk\\21.3.6528147",
  "sdkFolder": "C:\\Users\\thpark\\AppData\\Local\\Android\\Sdk",
  "sideBySideNdkFolderNames": [
    "22.1.7171670"
  ]
}